Análisis Experimento o2
…
## var total
var_t <- var(datos_long$decimas_asignadas)

## vara por grupo
var_g <- datos_long %>%
  group_by(id_estudiante) %>%
  summarise(var_y = var(decimas_asignadas), n = n())

var_t

[1] 2.294728

var_g

# A tibble: 674 × 3
   id_estudiante var_y     n
           <dbl> <dbl> <int>
 1     207508736 0.333     4
 2     207508798 8.33      4
 3     207508844 1         4
 4     207508898 3         4
 5     207509045 1.67      4
 6     207509276 0.333     4
 7     207509350 0.333     4
 8     207509406 9         4
 9     207509431 5.67      4
10     207509476 1.67      4
# ℹ 664 more rows
…
